# MagicaVoxel @ Ephtracy

# group
o 

# material
mtllib car_2.mtl
usemtl palette

# normals
vn -1 0 0
vn 1 0 0
vn 0 0 1
vn 0 0 -1
vn 0 -1 0
vn 0 1 0

# texcoords
vt 0.0175781 0.5
vt 0.279297 0.5
vt 0.826172 0.5
vt 0.958984 0.5
vt 0.986328 0.5
vt 0.994141 0.5

# verts
v 0.8 2 -0.6
v 0.8 2 -1.1
v 0.8 2 -2.7
v 0.8 2 -3.2
v 0.8 2.1 -0.5
v 0.8 2.1 -0.6
v 0.8 2.1 -0.7
v 0.8 2.1 -1
v 0.8 2.1 -1.1
v 0.8 2.1 -1.2
v 0.8 2.1 -2.6
v 0.8 2.1 -2.7
v 0.8 2.1 -2.8
v 0.8 2.1 -3.1
v 0.8 2.1 -3.2
v 0.8 2.1 -3.3
v 0.8 2.2 -0.6
v 0.8 2.2 -0.7
v 0.8 2.2 -1
v 0.8 2.2 -1.1
v 0.8 2.2 -2.7
v 0.8 2.2 -2.8
v 0.8 2.2 -3.1
v 0.8 2.2 -3.2
v 0.8 2.3 -0.1
v 0.8 2.3 -0.4
v 0.8 2.3 -0.8
v 0.8 2.3 -0.9
v 0.8 2.3 -1.6
v 0.8 2.3 -2.5
v 0.8 2.3 -2.9
v 0.8 2.3 -3
v 0.8 2.3 -3.5
v 0.8 2.3 -3.7
v 0.8 2.4 -0.8
v 0.8 2.4 -0.9
v 0.8 2.4 -1.6
v 0.8 2.4 -2.5
v 0.8 2.4 -2.9
v 0.8 2.4 -3
v 0.8 2.5 -0.1
v 0.8 2.5 -0.4
v 0.8 2.5 -0.6
v 0.8 2.5 -0.7
v 0.8 2.5 -1
v 0.8 2.5 -1.1
v 0.8 2.5 -2.7
v 0.8 2.5 -2.8
v 0.8 2.5 -3.1
v 0.8 2.5 -3.2
v 0.8 2.5 -3.5
v 0.8 2.5 -3.7
v 0.8 2.6 -0.5
v 0.8 2.6 -0.6
v 0.8 2.6 -0.7
v 0.8 2.6 -1
v 0.8 2.6 -1.1
v 0.8 2.6 -1.2
v 0.8 2.6 -2.6
v 0.8 2.6 -2.7
v 0.8 2.6 -2.8
v 0.8 2.6 -3.1
v 0.8 2.6 -3.2
v 0.8 2.6 -3.3
v 0.8 2.7 -0.6
v 0.8 2.7 -1.1
v 0.8 2.7 -2.7
v 0.8 2.7 -3.2
v 0.9 2.3 -0.4
v 0.9 2.3 -0.5
v 0.9 2.3 -1.2
v 0.9 2.3 -1.6
v 0.9 2.3 -2.5
v 0.9 2.3 -2.6
v 0.9 2.3 -3.3
v 0.9 2.3 -3.5
v 0.9 2.4 -0.4
v 0.9 2.4 -0.5
v 0.9 2.4 -1.2
v 0.9 2.4 -1.6
v 0.9 2.4 -1.7
v 0.9 2.4 -2.4
v 0.9 2.4 -2.5
v 0.9 2.4 -2.6
v 0.9 2.4 -3.3
v 0.9 2.4 -3.5
v 0.9 2.5 -0.2
v 0.9 2.5 -0.4
v 0.9 2.5 -3.5
v 0.9 2.5 -3.6
v 0.9 2.6 -0.5
v 0.9 2.6 -0.6
v 0.9 2.6 -1.1
v 0.9 2.6 -1.2
v 0.9 2.6 -2.6
v 0.9 2.6 -2.7
v 0.9 2.6 -3.2
v 0.9 2.6 -3.3
v 0.9 2.7 -0.6
v 0.9 2.7 -1.1
v 0.9 2.7 -2.7
v 0.9 2.7 -3.2
v 0.9 2.7 -3.4
v 0.9 2.7 -3.6
v 0.9 2.8 -0.2
v 0.9 2.8 -0.4
v 0.9 2.9 -0.2
v 0.9 2.9 -0.4
v 0.9 2.9 -1.7
v 0.9 2.9 -1.9
v 0.9 2.9 -3.4
v 0.9 2.9 -3.6
v 0.9 3 -1.7
v 0.9 3 -1.9
v 0.9 3.1 -0.2
v 0.9 3.1 -1.6
v 0.9 3.1 -1.7
v 0.9 3.1 -2.4
v 0.9 3.1 -2.5
v 0.9 3.1 -3.6
v 0.9 3.2 -1.7
v 0.9 3.2 -2.4
v 0.9 3.2 -2.5
v 0.9 3.2 -3.4
v 0.9 3.7 -1.7
v 0.9 3.7 -2.4
v 0.9 3.7 -2.5
v 0.9 3.7 -3.4
v 0.9 3.8 -1.6
v 0.9 3.8 -3.6
v 2.2 2 -1.2
v 2.2 2 -1.3
v 2.2 2.1 -1.2
v 2.2 2.1 -1.3
v 2.8 2.4 -0.3
v 2.8 2.4 -1.6
v 2.8 2.4 -1.7
v 2.8 2.4 -2.4
v 2.8 2.4 -2.5
v 2.8 2.4 -3.5
v 2.8 2.7 -3.4
v 2.8 2.7 -3.5
v 2.8 2.8 -0.3
v 2.8 2.8 -0.4
v 2.8 2.9 -0.3
v 2.8 2.9 -0.4
v 2.8 2.9 -1.7
v 2.8 2.9 -1.9
v 2.8 2.9 -3.4
v 2.8 2.9 -3.5
v 2.8 3 -0.3
v 2.8 3 -1.6
v 2.8 3 -1.7
v 2.8 3 -1.9
v 2.8 3.1 -1.6
v 2.8 3.1 -1.7
v 2.8 3.1 -2.4
v 2.8 3.1 -2.5
v 2.8 3.1 -3.5
v 2.8 3.2 -1.7
v 2.8 3.2 -1.8
v 2.8 3.2 -2.4
v 2.8 3.2 -2.5
v 2.8 3.2 -3.4
v 2.8 3.7 -1.8
v 2.8 3.7 -2.4
v 2.8 3.7 -2.5
v 2.8 3.7 -3.4
v 2.8 3.7 -3.5
v 2.9 2 -0.6
v 2.9 2 -1.1
v 2.9 2 -2.7
v 2.9 2 -3.2
v 2.9 2.1 -0.5
v 2.9 2.1 -0.6
v 2.9 2.1 -0.7
v 2.9 2.1 -1
v 2.9 2.1 -1.1
v 2.9 2.1 -1.2
v 2.9 2.1 -2.6
v 2.9 2.1 -2.7
v 2.9 2.1 -2.8
v 2.9 2.1 -3.1
v 2.9 2.1 -3.2
v 2.9 2.1 -3.3
v 2.9 2.2 -0.6
v 2.9 2.2 -0.7
v 2.9 2.2 -1
v 2.9 2.2 -1.1
v 2.9 2.2 -2.7
v 2.9 2.2 -2.8
v 2.9 2.2 -3.1
v 2.9 2.2 -3.2
v 2.9 2.3 -0.5
v 2.9 2.3 -0.6
v 2.9 2.3 -1.1
v 2.9 2.3 -1.2
v 2.9 2.3 -2.6
v 2.9 2.3 -2.7
v 2.9 2.3 -3.2
v 2.9 2.3 -3.3
v 0.9 2 -0.6
v 0.9 2 -1.1
v 0.9 2 -2.7
v 0.9 2 -3.2
v 0.9 2.1 -0.5
v 0.9 2.1 -0.6
v 0.9 2.1 -0.7
v 0.9 2.1 -1
v 0.9 2.1 -1.1
v 0.9 2.1 -1.2
v 0.9 2.1 -2.6
v 0.9 2.1 -2.7
v 0.9 2.1 -2.8
v 0.9 2.1 -3.1
v 0.9 2.1 -3.2
v 0.9 2.1 -3.3
v 0.9 2.2 -0.6
v 0.9 2.2 -0.7
v 0.9 2.2 -1
v 0.9 2.2 -1.1
v 0.9 2.2 -2.7
v 0.9 2.2 -2.8
v 0.9 2.2 -3.1
v 0.9 2.2 -3.2
v 0.9 2.3 -0.5
v 0.9 2.3 -0.6
v 0.9 2.3 -1.1
v 0.9 2.3 -1.2
v 0.9 2.3 -2.6
v 0.9 2.3 -2.7
v 0.9 2.3 -3.2
v 0.9 2.3 -3.3
v 1 2.4 -0.3
v 1 2.4 -1.6
v 1 2.4 -1.7
v 1 2.4 -2.4
v 1 2.4 -2.5
v 1 2.4 -3.5
v 1 2.7 -3.4
v 1 2.7 -3.5
v 1 2.8 -0.3
v 1 2.8 -0.4
v 1 2.9 -0.3
v 1 2.9 -0.4
v 1 2.9 -1.7
v 1 2.9 -1.9
v 1 2.9 -3.4
v 1 2.9 -3.5
v 1 3 -0.3
v 1 3 -1.6
v 1 3 -1.7
v 1 3 -1.9
v 1 3.1 -1.6
v 1 3.1 -1.7
v 1 3.1 -2.4
v 1 3.1 -2.5
v 1 3.1 -3.5
v 1 3.2 -1.7
v 1 3.2 -2.4
v 1 3.2 -2.5
v 1 3.2 -3.4
v 1 3.7 -1.7
v 1 3.7 -2.4
v 1 3.7 -2.5
v 1 3.7 -3.4
v 1 3.7 -3.5
v 2.6 2 -1.2
v 2.6 2 -1.3
v 2.6 2.1 -1.2
v 2.6 2.1 -1.3
v 2.9 2.3 -0.3
v 2.9 2.3 -0.5
v 2.9 2.3 -1.2
v 2.9 2.3 -1.6
v 2.9 2.3 -2.5
v 2.9 2.3 -2.6
v 2.9 2.3 -3.3
v 2.9 2.3 -3.4
v 2.9 2.4 -0.3
v 2.9 2.4 -0.5
v 2.9 2.4 -1.2
v 2.9 2.4 -1.6
v 2.9 2.4 -1.7
v 2.9 2.4 -2.4
v 2.9 2.4 -2.5
v 2.9 2.4 -2.6
v 2.9 2.4 -3.3
v 2.9 2.4 -3.4
v 2.9 2.5 -0.2
v 2.9 2.5 -0.3
v 2.9 2.5 -3.4
v 2.9 2.5 -3.6
v 2.9 2.6 -0.5
v 2.9 2.6 -0.6
v 2.9 2.6 -1.1
v 2.9 2.6 -1.2
v 2.9 2.6 -2.6
v 2.9 2.6 -2.7
v 2.9 2.6 -3.2
v 2.9 2.6 -3.3
v 2.9 2.7 -0.6
v 2.9 2.7 -1.1
v 2.9 2.7 -2.7
v 2.9 2.7 -3.2
v 2.9 2.7 -3.4
v 2.9 2.7 -3.6
v 2.9 2.8 -0.2
v 2.9 2.8 -0.4
v 2.9 2.9 -0.2
v 2.9 2.9 -0.4
v 2.9 2.9 -1.7
v 2.9 2.9 -1.9
v 2.9 2.9 -3.4
v 2.9 2.9 -3.6
v 2.9 3 -1.7
v 2.9 3 -1.9
v 2.9 3.1 -0.2
v 2.9 3.1 -1.6
v 2.9 3.1 -1.7
v 2.9 3.1 -2.4
v 2.9 3.1 -2.5
v 2.9 3.1 -3.6
v 2.9 3.2 -1.7
v 2.9 3.2 -1.8
v 2.9 3.2 -2.4
v 2.9 3.2 -2.5
v 2.9 3.2 -3.4
v 2.9 3.7 -1.7
v 2.9 3.7 -1.8
v 2.9 3.7 -2.4
v 2.9 3.7 -2.5
v 2.9 3.7 -3.4
v 2.9 3.8 -1.6
v 2.9 3.8 -3.6
v 3 2 -0.6
v 3 2 -1.1
v 3 2 -2.7
v 3 2 -3.2
v 3 2.1 -0.5
v 3 2.1 -0.6
v 3 2.1 -0.7
v 3 2.1 -1
v 3 2.1 -1.1
v 3 2.1 -1.2
v 3 2.1 -2.6
v 3 2.1 -2.7
v 3 2.1 -2.8
v 3 2.1 -3.1
v 3 2.1 -3.2
v 3 2.1 -3.3
v 3 2.2 -0.6
v 3 2.2 -0.7
v 3 2.2 -1
v 3 2.2 -1.1
v 3 2.2 -2.7
v 3 2.2 -2.8
v 3 2.2 -3.1
v 3 2.2 -3.2
v 3 2.3 -0.1
v 3 2.3 -0.3
v 3 2.3 -0.8
v 3 2.3 -0.9
v 3 2.3 -1.6
v 3 2.3 -2.5
v 3 2.3 -2.9
v 3 2.3 -3
v 3 2.3 -3.4
v 3 2.3 -3.7
v 3 2.4 -0.8
v 3 2.4 -0.9
v 3 2.4 -1.6
v 3 2.4 -2.5
v 3 2.4 -2.9
v 3 2.4 -3
v 3 2.5 -0.1
v 3 2.5 -0.3
v 3 2.5 -0.6
v 3 2.5 -0.7
v 3 2.5 -1
v 3 2.5 -1.1
v 3 2.5 -2.7
v 3 2.5 -2.8
v 3 2.5 -3.1
v 3 2.5 -3.2
v 3 2.5 -3.4
v 3 2.5 -3.7
v 3 2.6 -0.5
v 3 2.6 -0.6
v 3 2.6 -0.7
v 3 2.6 -1
v 3 2.6 -1.1
v 3 2.6 -1.2
v 3 2.6 -2.6
v 3 2.6 -2.7
v 3 2.6 -2.8
v 3 2.6 -3.1
v 3 2.6 -3.2
v 3 2.6 -3.3
v 3 2.7 -0.6
v 3 2.7 -1.1
v 3 2.7 -2.7
v 3 2.7 -3.2
v 0.8 2.3 -0.1
v 0.8 2.5 -0.1
v 3 2.3 -0.1
v 3 2.5 -0.1
v 0.9 2.5 -0.2
v 0.9 2.8 -0.2
v 0.9 2.9 -0.2
v 0.9 3.1 -0.2
v 1.2 2.8 -0.2
v 1.2 2.9 -0.2
v 1.6 2.5 -0.2
v 1.6 2.6 -0.2
v 2.2 2.5 -0.2
v 2.2 2.6 -0.2
v 2.6 2.8 -0.2
v 2.6 2.9 -0.2
v 2.9 2.5 -0.2
v 2.9 2.8 -0.2
v 2.9 2.9 -0.2
v 2.9 3.1 -0.2
v 0.8 2.1 -0.5
v 0.8 2.6 -0.5
v 0.9 2.1 -0.5
v 0.9 2.3 -0.5
v 0.9 2.4 -0.5
v 0.9 2.6 -0.5
v 2.9 2.1 -0.5
v 2.9 2.3 -0.5
v 2.9 2.4 -0.5
v 2.9 2.6 -0.5
v 3 2.1 -0.5
v 3 2.6 -0.5
v 0.8 2 -0.6
v 0.8 2.1 -0.6
v 0.8 2.6 -0.6
v 0.8 2.7 -0.6
v 0.9 2 -0.6
v 0.9 2.1 -0.6
v 0.9 2.6 -0.6
v 0.9 2.7 -0.6
v 2.9 2 -0.6
v 2.9 2.1 -0.6
v 2.9 2.6 -0.6
v 2.9 2.7 -0.6
v 3 2 -0.6
v 3 2.1 -0.6
v 3 2.6 -0.6
v 3 2.7 -0.6
v 2.2 2 -1.2
v 2.2 2.1 -1.2
v 2.6 2 -1.2
v 2.6 2.1 -1.2
v 0.8 2.3 -1.6
v 0.8 2.4 -1.6
v 0.9 2.3 -1.6
v 0.9 2.4 -1.6
v 0.9 3.1 -1.6
v 0.9 3.8 -1.6
v 1 3.2 -1.6
v 1 3.7 -1.6
v 2.8 3.2 -1.6
v 2.8 3.7 -1.6
v 2.9 2.3 -1.6
v 2.9 2.4 -1.6
v 2.9 3.1 -1.6
v 2.9 3.8 -1.6
v 3 2.3 -1.6
v 3 2.4 -1.6
v 2.8 3.2 -1.8
v 2.8 3.7 -1.8
v 2.9 3.2 -1.8
v 2.9 3.7 -1.8
v 0.8 2.1 -2.6
v 0.8 2.6 -2.6
v 0.9 2.1 -2.6
v 0.9 2.3 -2.6
v 0.9 2.4 -2.6
v 0.9 2.6 -2.6
v 2.9 2.1 -2.6
v 2.9 2.3 -2.6
v 2.9 2.4 -2.6
v 2.9 2.6 -2.6
v 3 2.1 -2.6
v 3 2.6 -2.6
v 0.8 2 -2.7
v 0.8 2.1 -2.7
v 0.8 2.6 -2.7
v 0.8 2.7 -2.7
v 0.9 2 -2.7
v 0.9 2.1 -2.7
v 0.9 2.6 -2.7
v 0.9 2.7 -2.7
v 2.9 2 -2.7
v 2.9 2.1 -2.7
v 2.9 2.6 -2.7
v 2.9 2.7 -2.7
v 3 2 -2.7
v 3 2.1 -2.7
v 3 2.6 -2.7
v 3 2.7 -2.7
v 2.9 2.3 -3.4
v 2.9 2.4 -3.4
v 2.9 2.5 -3.4
v 3 2.3 -3.4
v 3 2.5 -3.4
v 0.8 2.3 -3.5
v 0.8 2.5 -3.5
v 0.9 2.3 -3.5
v 0.9 2.4 -3.5
v 0.9 2.5 -3.5
v 1 2.4 -3.5
v 1 2.7 -3.5
v 1 2.9 -3.5
v 1 3.1 -3.5
v 1 3.7 -3.5
v 1.1 3.1 -3.5
v 1.1 3.7 -3.5
v 1.2 2.7 -3.5
v 1.2 2.9 -3.5
v 1.6 2.4 -3.5
v 1.6 2.6 -3.5
v 2.2 2.4 -3.5
v 2.2 2.6 -3.5
v 2.6 2.7 -3.5
v 2.6 2.9 -3.5
v 2.7 3.1 -3.5
v 2.7 3.7 -3.5
v 2.8 2.4 -3.5
v 2.8 2.7 -3.5
v 2.8 2.9 -3.5
v 2.8 3.1 -3.5
v 2.8 3.7 -3.5
v 1 2.4 -0.3
v 1 2.8 -0.3
v 1 2.9 -0.3
v 1 3 -0.3
v 1.2 2.8 -0.3
v 1.2 2.9 -0.3
v 1.6 2.5 -0.3
v 1.6 2.6 -0.3
v 2.2 2.5 -0.3
v 2.2 2.6 -0.3
v 2.6 2.8 -0.3
v 2.6 2.9 -0.3
v 2.8 2.4 -0.3
v 2.8 2.8 -0.3
v 2.8 2.9 -0.3
v 2.8 3 -0.3
v 2.9 2.3 -0.3
v 2.9 2.4 -0.3
v 2.9 2.5 -0.3
v 3 2.3 -0.3
v 3 2.5 -0.3
v 0.8 2.3 -0.4
v 0.8 2.5 -0.4
v 0.9 2.3 -0.4
v 0.9 2.4 -0.4
v 0.9 2.5 -0.4
v 0.8 2 -1.1
v 0.8 2.1 -1.1
v 0.8 2.6 -1.1
v 0.8 2.7 -1.1
v 0.9 2 -1.1
v 0.9 2.1 -1.1
v 0.9 2.6 -1.1
v 0.9 2.7 -1.1
v 2.9 2 -1.1
v 2.9 2.1 -1.1
v 2.9 2.6 -1.1
v 2.9 2.7 -1.1
v 3 2 -1.1
v 3 2.1 -1.1
v 3 2.6 -1.1
v 3 2.7 -1.1
v 0.8 2.1 -1.2
v 0.8 2.6 -1.2
v 0.9 2.1 -1.2
v 0.9 2.3 -1.2
v 0.9 2.4 -1.2
v 0.9 2.6 -1.2
v 2.9 2.1 -1.2
v 2.9 2.3 -1.2
v 2.9 2.4 -1.2
v 2.9 2.6 -1.2
v 3 2.1 -1.2
v 3 2.6 -1.2
v 2.2 2 -1.3
v 2.2 2.1 -1.3
v 2.6 2 -1.3
v 2.6 2.1 -1.3
v 1 3 -1.6
v 1 3.1 -1.6
v 2.8 3 -1.6
v 2.8 3.1 -1.6
v 1 3.1 -1.7
v 1 3.2 -1.7
v 1 3.7 -1.7
v 2.8 3.1 -1.7
v 2.8 3.2 -1.7
v 2.8 3.7 -1.7
v 2.9 3.2 -1.7
v 2.9 3.7 -1.7
v 0.8 2.3 -2.5
v 0.8 2.4 -2.5
v 0.9 2.3 -2.5
v 0.9 2.4 -2.5
v 2.9 2.3 -2.5
v 2.9 2.4 -2.5
v 3 2.3 -2.5
v 3 2.4 -2.5
v 0.8 2 -3.2
v 0.8 2.1 -3.2
v 0.8 2.6 -3.2
v 0.8 2.7 -3.2
v 0.9 2 -3.2
v 0.9 2.1 -3.2
v 0.9 2.6 -3.2
v 0.9 2.7 -3.2
v 2.9 2 -3.2
v 2.9 2.1 -3.2
v 2.9 2.6 -3.2
v 2.9 2.7 -3.2
v 3 2 -3.2
v 3 2.1 -3.2
v 3 2.6 -3.2
v 3 2.7 -3.2
v 0.8 2.1 -3.3
v 0.8 2.6 -3.3
v 0.9 2.1 -3.3
v 0.9 2.3 -3.3
v 0.9 2.4 -3.3
v 0.9 2.6 -3.3
v 2.9 2.1 -3.3
v 2.9 2.3 -3.3
v 2.9 2.4 -3.3
v 2.9 2.6 -3.3
v 3 2.1 -3.3
v 3 2.6 -3.3
v 0.9 2.5 -3.6
v 0.9 2.7 -3.6
v 0.9 2.9 -3.6
v 0.9 3.1 -3.6
v 0.9 3.8 -3.6
v 1.1 3.1 -3.6
v 1.1 3.7 -3.6
v 1.2 2.7 -3.6
v 1.2 2.9 -3.6
v 1.6 2.5 -3.6
v 1.6 2.6 -3.6
v 2.2 2.5 -3.6
v 2.2 2.6 -3.6
v 2.6 2.7 -3.6
v 2.6 2.9 -3.6
v 2.7 3.1 -3.6
v 2.7 3.7 -3.6
v 2.9 2.5 -3.6
v 2.9 2.7 -3.6
v 2.9 2.9 -3.6
v 2.9 3.1 -3.6
v 2.9 3.8 -3.6
v 0.8 2.3 -3.7
v 0.8 2.5 -3.7
v 3 2.3 -3.7
v 3 2.5 -3.7
v 0.8 2 -0.6
v 0.9 2 -0.6
v 2.9 2 -0.6
v 3 2 -0.6
v 0.8 2 -1.1
v 0.9 2 -1.1
v 2.9 2 -1.1
v 3 2 -1.1
v 2.2 2 -1.2
v 2.6 2 -1.2
v 2.2 2 -1.3
v 2.6 2 -1.3
v 0.8 2 -2.7
v 0.9 2 -2.7
v 2.9 2 -2.7
v 3 2 -2.7
v 0.8 2 -3.2
v 0.9 2 -3.2
v 2.9 2 -3.2
v 3 2 -3.2
v 0.8 2.1 -0.5
v 0.9 2.1 -0.5
v 2.9 2.1 -0.5
v 3 2.1 -0.5
v 0.8 2.1 -0.6
v 0.9 2.1 -0.6
v 2.9 2.1 -0.6
v 3 2.1 -0.6
v 0.8 2.1 -1.1
v 0.9 2.1 -1.1
v 2.9 2.1 -1.1
v 3 2.1 -1.1
v 0.8 2.1 -1.2
v 0.9 2.1 -1.2
v 2.9 2.1 -1.2
v 3 2.1 -1.2
v 0.8 2.1 -2.6
v 0.9 2.1 -2.6
v 2.9 2.1 -2.6
v 3 2.1 -2.6
v 0.8 2.1 -2.7
v 0.9 2.1 -2.7
v 2.9 2.1 -2.7
v 3 2.1 -2.7
v 0.8 2.1 -3.2
v 0.9 2.1 -3.2
v 2.9 2.1 -3.2
v 3 2.1 -3.2
v 0.8 2.1 -3.3
v 0.9 2.1 -3.3
v 2.9 2.1 -3.3
v 3 2.1 -3.3
v 0.8 2.3 -0.1
v 3 2.3 -0.1
v 2.9 2.3 -0.3
v 3 2.3 -0.3
v 0.8 2.3 -0.4
v 0.9 2.3 -0.4
v 0.9 2.3 -0.5
v 2.9 2.3 -0.5
v 0.9 2.3 -0.6
v 2.9 2.3 -0.6
v 0.9 2.3 -1.1
v 2.9 2.3 -1.1
v 0.9 2.3 -1.2
v 2.9 2.3 -1.2
v 0.8 2.3 -1.6
v 0.9 2.3 -1.6
v 2.9 2.3 -1.6
v 3 2.3 -1.6
v 0.8 2.3 -2.5
v 0.9 2.3 -2.5
v 2.9 2.3 -2.5
v 3 2.3 -2.5
v 0.9 2.3 -2.6
v 2.9 2.3 -2.6
v 0.9 2.3 -2.7
v 2.9 2.3 -2.7
v 0.9 2.3 -3.2
v 2.9 2.3 -3.2
v 0.9 2.3 -3.3
v 2.9 2.3 -3.3
v 2.9 2.3 -3.4
v 3 2.3 -3.4
v 0.8 2.3 -3.5
v 0.9 2.3 -3.5
v 0.8 2.3 -3.7
v 3 2.3 -3.7
v 1 3 -0.3
v 2.8 3 -0.3
v 1 3 -1.6
v 2.8 3 -1.6
v 1 3.1 -1.6
v 2.8 3.1 -1.6
v 1 3.1 -1.7
v 2.8 3.1 -1.7
v 1 3.7 -1.7
v 2.8 3.7 -1.7
v 2.9 3.7 -1.7
v 2.8 3.7 -1.8
v 2.9 3.7 -1.8
v 1 3.7 -2.4
v 2.8 3.7 -2.4
v 1 3.7 -2.5
v 2.8 3.7 -2.5
v 1 3.7 -3.4
v 2.8 3.7 -3.4
v 1 3.7 -3.5
v 1.1 3.7 -3.5
v 2.7 3.7 -3.5
v 2.8 3.7 -3.5
v 2.2 2.1 -1.2
v 2.6 2.1 -1.2
v 2.2 2.1 -1.3
v 2.6 2.1 -1.3
v 1 2.4 -0.3
v 2.8 2.4 -0.3
v 0.8 2.4 -1.6
v 0.9 2.4 -1.6
v 1 2.4 -1.6
v 2.8 2.4 -1.6
v 2.9 2.4 -1.6
v 3 2.4 -1.6
v 0.9 2.4 -1.7
v 1 2.4 -1.7
v 2.8 2.4 -1.7
v 2.9 2.4 -1.7
v 0.9 2.4 -2.4
v 1 2.4 -2.4
v 2.8 2.4 -2.4
v 2.9 2.4 -2.4
v 0.8 2.4 -2.5
v 0.9 2.4 -2.5
v 1 2.4 -2.5
v 2.8 2.4 -2.5
v 2.9 2.4 -2.5
v 3 2.4 -2.5
v 1 2.4 -3.5
v 1.6 2.4 -3.5
v 2.2 2.4 -3.5
v 2.8 2.4 -3.5
v 0.8 2.5 -0.1
v 3 2.5 -0.1
v 0.9 2.5 -0.2
v 1.6 2.5 -0.2
v 2.2 2.5 -0.2
v 2.9 2.5 -0.2
v 2.9 2.5 -0.3
v 3 2.5 -0.3
v 0.8 2.5 -0.4
v 0.9 2.5 -0.4
v 2.9 2.5 -3.4
v 3 2.5 -3.4
v 0.8 2.5 -3.5
v 0.9 2.5 -3.5
v 0.9 2.5 -3.6
v 1.6 2.5 -3.6
v 2.2 2.5 -3.6
v 2.9 2.5 -3.6
v 0.8 2.5 -3.7
v 3 2.5 -3.7
v 0.8 2.6 -0.5
v 0.9 2.6 -0.5
v 2.9 2.6 -0.5
v 3 2.6 -0.5
v 0.8 2.6 -0.6
v 0.9 2.6 -0.6
v 2.9 2.6 -0.6
v 3 2.6 -0.6
v 0.8 2.6 -1.1
v 0.9 2.6 -1.1
v 2.9 2.6 -1.1
v 3 2.6 -1.1
v 0.8 2.6 -1.2
v 0.9 2.6 -1.2
v 2.9 2.6 -1.2
v 3 2.6 -1.2
v 0.8 2.6 -2.6
v 0.9 2.6 -2.6
v 2.9 2.6 -2.6
v 3 2.6 -2.6
v 0.8 2.6 -2.7
v 0.9 2.6 -2.7
v 2.9 2.6 -2.7
v 3 2.6 -2.7
v 0.8 2.6 -3.2
v 0.9 2.6 -3.2
v 2.9 2.6 -3.2
v 3 2.6 -3.2
v 0.8 2.6 -3.3
v 0.9 2.6 -3.3
v 2.9 2.6 -3.3
v 3 2.6 -3.3
v 0.8 2.7 -0.6
v 0.9 2.7 -0.6
v 2.9 2.7 -0.6
v 3 2.7 -0.6
v 0.8 2.7 -1.1
v 0.9 2.7 -1.1
v 2.9 2.7 -1.1
v 3 2.7 -1.1
v 0.8 2.7 -2.7
v 0.9 2.7 -2.7
v 2.9 2.7 -2.7
v 3 2.7 -2.7
v 0.8 2.7 -3.2
v 0.9 2.7 -3.2
v 2.9 2.7 -3.2
v 3 2.7 -3.2
v 0.9 3.1 -0.2
v 2.9 3.1 -0.2
v 0.9 3.1 -1.6
v 2.9 3.1 -1.6
v 2.8 3.2 -1.7
v 2.9 3.2 -1.7
v 2.8 3.2 -1.8
v 2.9 3.2 -1.8
v 0.9 3.8 -1.6
v 2.9 3.8 -1.6
v 0.9 3.8 -3.6
v 2.9 3.8 -3.6

# faces
f 6/5/1 2/5/1 1/5/1
f 7/5/1 2/5/1 6/5/1
f 8/5/1 2/5/1 7/5/1
f 9/5/1 2/5/1 8/5/1
f 12/5/1 4/5/1 3/5/1
f 13/5/1 4/5/1 12/5/1
f 14/5/1 4/5/1 13/5/1
f 15/5/1 4/5/1 14/5/1
f 17/5/1 6/5/1 5/5/1
f 17/5/1 7/5/1 6/5/1
f 18/4/1 8/4/1 7/4/1
f 18/5/1 7/5/1 17/5/1
f 19/5/1 10/5/1 9/5/1
f 19/4/1 8/4/1 18/4/1
f 19/5/1 9/5/1 8/5/1
f 20/5/1 10/5/1 19/5/1
f 21/5/1 12/5/1 11/5/1
f 21/5/1 13/5/1 12/5/1
f 22/4/1 14/4/1 13/4/1
f 22/5/1 13/5/1 21/5/1
f 23/5/1 16/5/1 15/5/1
f 23/4/1 14/4/1 22/4/1
f 23/5/1 15/5/1 14/5/1
f 24/5/1 16/5/1 23/5/1
f 27/4/1 18/4/1 17/4/1
f 27/4/1 19/4/1 18/4/1
f 27/4/1 20/4/1 19/4/1
f 28/4/1 20/4/1 27/4/1
f 31/4/1 22/4/1 21/4/1
f 31/4/1 24/4/1 23/4/1
f 31/4/1 23/4/1 22/4/1
f 32/4/1 24/4/1 31/4/1
f 35/6/1 28/6/1 27/6/1
f 35/4/1 27/4/1 17/4/1
f 36/4/1 20/4/1 28/4/1
f 36/6/1 28/6/1 35/6/1
f 37/6/1 30/6/1 29/6/1
f 38/6/1 30/6/1 37/6/1
f 39/4/1 31/4/1 21/4/1
f 39/6/1 32/6/1 31/6/1
f 40/4/1 24/4/1 32/4/1
f 40/6/1 32/6/1 39/6/1
f 41/6/1 26/6/1 25/6/1
f 42/6/1 26/6/1 41/6/1
f 43/5/1 17/5/1 5/5/1
f 43/4/1 35/4/1 17/4/1
f 43/4/1 36/4/1 35/4/1
f 44/4/1 36/4/1 43/4/1
f 45/4/1 20/4/1 36/4/1
f 45/4/1 36/4/1 44/4/1
f 46/5/1 10/5/1 20/5/1
f 46/4/1 20/4/1 45/4/1
f 47/5/1 21/5/1 11/5/1
f 47/4/1 39/4/1 21/4/1
f 47/4/1 40/4/1 39/4/1
f 48/4/1 40/4/1 47/4/1
f 49/4/1 24/4/1 40/4/1
f 49/4/1 40/4/1 48/4/1
f 50/5/1 16/5/1 24/5/1
f 50/4/1 24/4/1 49/4/1
f 51/6/1 34/6/1 33/6/1
f 52/6/1 34/6/1 51/6/1
f 53/5/1 44/5/1 43/5/1
f 53/5/1 43/5/1 5/5/1
f 54/5/1 44/5/1 53/5/1
f 55/4/1 45/4/1 44/4/1
f 55/5/1 44/5/1 54/5/1
f 56/5/1 46/5/1 45/5/1
f 56/4/1 45/4/1 55/4/1
f 57/5/1 10/5/1 46/5/1
f 57/5/1 46/5/1 56/5/1
f 58/5/1 10/5/1 57/5/1
f 59/5/1 48/5/1 47/5/1
f 59/5/1 47/5/1 11/5/1
f 60/5/1 48/5/1 59/5/1
f 61/4/1 49/4/1 48/4/1
f 61/5/1 48/5/1 60/5/1
f 62/5/1 50/5/1 49/5/1
f 62/4/1 49/4/1 61/4/1
f 63/5/1 16/5/1 50/5/1
f 63/5/1 50/5/1 62/5/1
f 64/5/1 16/5/1 63/5/1
f 65/5/1 56/5/1 55/5/1
f 65/5/1 55/5/1 54/5/1
f 65/5/1 57/5/1 56/5/1
f 66/5/1 57/5/1 65/5/1
f 67/5/1 63/5/1 62/5/1
f 67/5/1 62/5/1 61/5/1
f 67/5/1 61/5/1 60/5/1
f 68/5/1 63/5/1 67/5/1
f 77/6/1 70/6/1 69/6/1
f 78/6/1 70/6/1 77/6/1
f 79/6/1 72/6/1 71/6/1
f 80/6/1 72/6/1 79/6/1
f 83/6/1 74/6/1 73/6/1
f 84/6/1 74/6/1 83/6/1
f 85/6/1 76/6/1 75/6/1
f 86/6/1 76/6/1 85/6/1
f 88/3/1 78/3/1 77/3/1
f 89/3/1 86/3/1 85/3/1
f 91/3/1 88/3/1 87/3/1
f 91/3/1 78/3/1 88/3/1
f 94/3/1 80/3/1 79/3/1
f 95/3/1 84/3/1 83/3/1
f 98/3/1 89/3/1 85/3/1
f 98/3/1 90/3/1 89/3/1
f 99/3/1 92/3/1 91/3/1
f 100/3/1 94/3/1 93/3/1
f 101/3/1 96/3/1 95/3/1
f 102/3/1 98/3/1 97/3/1
f 103/3/1 90/3/1 98/3/1
f 103/3/1 98/3/1 102/3/1
f 104/3/1 90/3/1 103/3/1
f 105/3/1 99/3/1 91/3/1
f 105/3/1 100/3/1 99/3/1
f 105/3/1 91/3/1 87/3/1
f 106/3/1 100/3/1 105/3/1
f 107/1/1 106/1/1 105/1/1
f 108/3/1 100/3/1 106/3/1
f 108/1/1 106/1/1 107/1/1
f 109/3/1 82/3/1 81/3/1
f 109/4/1 81/4/1 80/4/1
f 110/3/1 82/3/1 109/3/1
f 111/2/1 104/2/1 103/2/1
f 111/3/1 103/3/1 102/3/1
f 111/3/1 102/3/1 101/3/1
f 112/2/1 104/2/1 111/2/1
f 113/6/1 110/6/1 109/6/1
f 113/4/1 109/4/1 80/4/1
f 114/3/1 82/3/1 110/3/1
f 114/6/1 110/6/1 113/6/1
f 115/3/1 108/3/1 107/3/1
f 116/4/1 113/4/1 80/4/1
f 116/3/1 108/3/1 115/3/1
f 116/3/1 100/3/1 108/3/1
f 116/3/1 80/3/1 94/3/1
f 116/3/1 94/3/1 100/3/1
f 117/3/1 114/3/1 113/3/1
f 117/4/1 113/4/1 116/4/1
f 118/3/1 82/3/1 114/3/1
f 118/3/1 114/3/1 117/3/1
f 118/4/1 83/4/1 82/4/1
f 119/3/1 101/3/1 95/3/1
f 119/4/1 83/4/1 118/4/1
f 119/3/1 95/3/1 83/3/1
f 119/3/1 111/3/1 101/3/1
f 119/3/1 112/3/1 111/3/1
f 120/3/1 112/3/1 119/3/1
f 121/4/1 118/4/1 117/4/1
f 121/4/1 120/4/1 119/4/1
f 121/4/1 119/4/1 118/4/1
f 121/4/1 117/4/1 116/4/1
f 122/4/1 120/4/1 121/4/1
f 123/4/1 120/4/1 122/4/1
f 124/4/1 120/4/1 123/4/1
f 125/4/1 121/4/1 116/4/1
f 125/6/1 122/6/1 121/6/1
f 126/4/1 123/4/1 122/4/1
f 126/6/1 122/6/1 125/6/1
f 127/6/1 124/6/1 123/6/1
f 127/4/1 123/4/1 126/4/1
f 128/4/1 120/4/1 124/4/1
f 128/6/1 124/6/1 127/6/1
f 129/4/1 127/4/1 126/4/1
f 129/4/1 126/4/1 125/4/1
f 129/4/1 128/4/1 127/4/1
f 129/4/1 125/4/1 116/4/1
f 130/4/1 120/4/1 128/4/1
f 130/4/1 128/4/1 129/4/1
f 133/6/1 132/6/1 131/6/1
f 134/6/1 132/6/1 133/6/1
f 141/3/1 140/3/1 139/3/1
f 142/3/1 140/3/1 141/3/1
f 143/3/1 136/3/1 135/3/1
f 144/3/1 136/3/1 143/3/1
f 145/1/1 144/1/1 143/1/1
f 146/3/1 136/3/1 144/3/1
f 146/1/1 144/1/1 145/1/1
f 147/4/1 137/4/1 136/4/1
f 147/3/1 138/3/1 137/3/1
f 148/3/1 138/3/1 147/3/1
f 149/3/1 141/3/1 139/3/1
f 149/2/1 142/2/1 141/2/1
f 150/2/1 142/2/1 149/2/1
f 151/3/1 146/3/1 145/3/1
f 152/3/1 136/3/1 146/3/1
f 152/3/1 146/3/1 151/3/1
f 152/4/1 147/4/1 136/4/1
f 153/6/1 148/6/1 147/6/1
f 153/4/1 147/4/1 152/4/1
f 154/3/1 138/3/1 148/3/1
f 154/6/1 148/6/1 153/6/1
f 155/4/1 153/4/1 152/4/1
f 156/3/1 154/3/1 153/3/1
f 156/4/1 153/4/1 155/4/1
f 157/4/1 139/4/1 138/4/1
f 157/3/1 154/3/1 156/3/1
f 157/3/1 138/3/1 154/3/1
f 158/3/1 149/3/1 139/3/1
f 158/4/1 139/4/1 157/4/1
f 158/3/1 150/3/1 149/3/1
f 159/3/1 150/3/1 158/3/1
f 160/4/1 157/4/1 156/4/1
f 160/4/1 159/4/1 158/4/1
f 160/4/1 158/4/1 157/4/1
f 161/4/1 159/4/1 160/4/1
f 162/4/1 159/4/1 161/4/1
f 163/4/1 159/4/1 162/4/1
f 164/4/1 159/4/1 163/4/1
f 165/6/1 162/6/1 161/6/1
f 166/4/1 163/4/1 162/4/1
f 166/6/1 162/6/1 165/6/1
f 167/6/1 164/6/1 163/6/1
f 167/4/1 163/4/1 166/4/1
f 168/4/1 159/4/1 164/4/1
f 168/6/1 164/6/1 167/6/1
f 169/4/1 159/4/1 168/4/1
f 175/5/1 171/5/1 170/5/1
f 176/5/1 171/5/1 175/5/1
f 177/5/1 171/5/1 176/5/1
f 178/5/1 171/5/1 177/5/1
f 181/5/1 173/5/1 172/5/1
f 182/5/1 173/5/1 181/5/1
f 183/5/1 173/5/1 182/5/1
f 184/5/1 173/5/1 183/5/1
f 186/5/1 175/5/1 174/5/1
f 186/5/1 176/5/1 175/5/1
f 187/4/1 177/4/1 176/4/1
f 187/5/1 176/5/1 186/5/1
f 188/5/1 179/5/1 178/5/1
f 188/4/1 177/4/1 187/4/1
f 188/5/1 178/5/1 177/5/1
f 189/5/1 179/5/1 188/5/1
f 190/5/1 181/5/1 180/5/1
f 190/5/1 182/5/1 181/5/1
f 191/4/1 183/4/1 182/4/1
f 191/5/1 182/5/1 190/5/1
f 192/5/1 185/5/1 184/5/1
f 192/4/1 183/4/1 191/4/1
f 192/5/1 184/5/1 183/5/1
f 193/5/1 185/5/1 192/5/1
f 194/5/1 186/5/1 174/5/1
f 195/4/1 187/4/1 186/4/1
f 195/5/1 186/5/1 194/5/1
f 195/4/1 188/4/1 187/4/1
f 195/4/1 189/4/1 188/4/1
f 196/5/1 179/5/1 189/5/1
f 196/4/1 189/4/1 195/4/1
f 197/5/1 179/5/1 196/5/1
f 198/5/1 190/5/1 180/5/1
f 199/4/1 191/4/1 190/4/1
f 199/5/1 190/5/1 198/5/1
f 199/4/1 193/4/1 192/4/1
f 199/4/1 192/4/1 191/4/1
f 200/5/1 185/5/1 193/5/1
f 200/4/1 193/4/1 199/4/1
f 201/5/1 185/5/1 200/5/1
f 202/5/2 203/5/2 207/5/2
f 207/5/2 203/5/2 208/5/2
f 208/5/2 203/5/2 209/5/2
f 209/5/2 203/5/2 210/5/2
f 204/5/2 205/5/2 213/5/2
f 213/5/2 205/5/2 214/5/2
f 214/5/2 205/5/2 215/5/2
f 215/5/2 205/5/2 216/5/2
f 206/5/2 207/5/2 218/5/2
f 207/5/2 208/5/2 218/5/2
f 208/4/2 209/4/2 219/4/2
f 218/5/2 208/5/2 219/5/2
f 210/5/2 211/5/2 220/5/2
f 219/4/2 209/4/2 220/4/2
f 209/5/2 210/5/2 220/5/2
f 220/5/2 211/5/2 221/5/2
f 212/5/2 213/5/2 222/5/2
f 213/5/2 214/5/2 222/5/2
f 214/4/2 215/4/2 223/4/2
f 222/5/2 214/5/2 223/5/2
f 216/5/2 217/5/2 224/5/2
f 223/4/2 215/4/2 224/4/2
f 215/5/2 216/5/2 224/5/2
f 224/5/2 217/5/2 225/5/2
f 206/5/2 218/5/2 226/5/2
f 218/4/2 219/4/2 227/4/2
f 226/5/2 218/5/2 227/5/2
f 219/4/2 220/4/2 227/4/2
f 220/4/2 221/4/2 227/4/2
f 221/5/2 211/5/2 228/5/2
f 227/4/2 221/4/2 228/4/2
f 228/5/2 211/5/2 229/5/2
f 212/5/2 222/5/2 230/5/2
f 222/4/2 223/4/2 231/4/2
f 230/5/2 222/5/2 231/5/2
f 224/4/2 225/4/2 231/4/2
f 223/4/2 224/4/2 231/4/2
f 225/5/2 217/5/2 232/5/2
f 231/4/2 225/4/2 232/4/2
f 232/5/2 217/5/2 233/5/2
f 238/3/2 239/3/2 240/3/2
f 240/3/2 239/3/2 241/3/2
f 234/3/2 235/3/2 242/3/2
f 242/3/2 235/3/2 243/3/2
f 242/1/2 243/1/2 244/1/2
f 243/3/2 235/3/2 245/3/2
f 244/1/2 243/1/2 245/1/2
f 235/4/2 236/4/2 246/4/2
f 236/3/2 237/3/2 246/3/2
f 246/3/2 237/3/2 247/3/2
f 238/3/2 240/3/2 248/3/2
f 240/2/2 241/2/2 248/2/2
f 248/2/2 241/2/2 249/2/2
f 244/3/2 245/3/2 250/3/2
f 245/3/2 235/3/2 251/3/2
f 250/3/2 245/3/2 251/3/2
f 235/4/2 246/4/2 251/4/2
f 246/6/2 247/6/2 252/6/2
f 251/4/2 246/4/2 252/4/2
f 247/3/2 237/3/2 253/3/2
f 252/6/2 247/6/2 253/6/2
f 251/4/2 252/4/2 254/4/2
f 252/3/2 253/3/2 255/3/2
f 254/4/2 252/4/2 255/4/2
f 237/4/2 238/4/2 256/4/2
f 255/3/2 253/3/2 256/3/2
f 253/3/2 237/3/2 256/3/2
f 238/3/2 248/3/2 257/3/2
f 256/4/2 238/4/2 257/4/2
f 248/3/2 249/3/2 257/3/2
f 257/3/2 249/3/2 258/3/2
f 255/4/2 256/4/2 259/4/2
f 257/4/2 258/4/2 259/4/2
f 256/4/2 257/4/2 259/4/2
f 259/4/2 258/4/2 260/4/2
f 260/4/2 258/4/2 261/4/2
f 261/4/2 258/4/2 262/4/2
f 259/6/2 260/6/2 263/6/2
f 260/4/2 261/4/2 264/4/2
f 263/6/2 260/6/2 264/6/2
f 261/6/2 262/6/2 265/6/2
f 264/4/2 261/4/2 265/4/2
f 262/4/2 258/4/2 266/4/2
f 265/6/2 262/6/2 266/6/2
f 266/4/2 258/4/2 267/4/2
f 268/6/2 269/6/2 270/6/2
f 270/6/2 269/6/2 271/6/2
f 272/6/2 273/6/2 280/6/2
f 280/6/2 273/6/2 281/6/2
f 274/6/2 275/6/2 282/6/2
f 282/6/2 275/6/2 283/6/2
f 276/6/2 277/6/2 286/6/2
f 286/6/2 277/6/2 287/6/2
f 278/6/2 279/6/2 288/6/2
f 288/6/2 279/6/2 289/6/2
f 280/3/2 281/3/2 291/3/2
f 288/3/2 289/3/2 292/3/2
f 290/3/2 291/3/2 294/3/2
f 291/3/2 281/3/2 294/3/2
f 282/3/2 283/3/2 297/3/2
f 286/3/2 287/3/2 298/3/2
f 288/3/2 292/3/2 301/3/2
f 292/3/2 293/3/2 301/3/2
f 294/3/2 295/3/2 302/3/2
f 296/3/2 297/3/2 303/3/2
f 298/3/2 299/3/2 304/3/2
f 300/3/2 301/3/2 305/3/2
f 301/3/2 293/3/2 306/3/2
f 305/3/2 301/3/2 306/3/2
f 306/3/2 293/3/2 307/3/2
f 294/3/2 302/3/2 308/3/2
f 302/3/2 303/3/2 308/3/2
f 290/3/2 294/3/2 308/3/2
f 308/3/2 303/3/2 309/3/2
f 308/1/2 309/1/2 310/1/2
f 309/3/2 303/3/2 311/3/2
f 310/1/2 309/1/2 311/1/2
f 284/3/2 285/3/2 312/3/2
f 283/4/2 284/4/2 312/4/2
f 312/3/2 285/3/2 313/3/2
f 306/2/2 307/2/2 314/2/2
f 305/3/2 306/3/2 314/3/2
f 304/3/2 305/3/2 314/3/2
f 314/2/2 307/2/2 315/2/2
f 312/6/2 313/6/2 316/6/2
f 283/4/2 312/4/2 316/4/2
f 313/3/2 285/3/2 317/3/2
f 316/6/2 313/6/2 317/6/2
f 310/3/2 311/3/2 318/3/2
f 283/4/2 316/4/2 319/4/2
f 318/3/2 311/3/2 319/3/2
f 311/3/2 303/3/2 319/3/2
f 297/3/2 283/3/2 319/3/2
f 303/3/2 297/3/2 319/3/2
f 316/3/2 317/3/2 320/3/2
f 319/4/2 316/4/2 320/4/2
f 317/3/2 285/3/2 321/3/2
f 320/3/2 317/3/2 321/3/2
f 285/4/2 286/4/2 321/4/2
f 298/3/2 304/3/2 322/3/2
f 321/4/2 286/4/2 322/4/2
f 286/3/2 298/3/2 322/3/2
f 304/3/2 314/3/2 322/3/2
f 314/3/2 315/3/2 322/3/2
f 322/3/2 315/3/2 323/3/2
f 320/4/2 321/4/2 324/4/2
f 322/4/2 323/4/2 324/4/2
f 321/4/2 322/4/2 324/4/2
f 319/4/2 320/4/2 324/4/2
f 324/4/2 323/4/2 325/4/2
f 325/4/2 323/4/2 326/4/2
f 326/4/2 323/4/2 327/4/2
f 327/4/2 323/4/2 328/4/2
f 319/4/2 324/4/2 329/4/2
f 325/6/2 326/6/2 330/6/2
f 326/4/2 327/4/2 331/4/2
f 330/6/2 326/6/2 331/6/2
f 327/6/2 328/6/2 332/6/2
f 331/4/2 327/4/2 332/4/2
f 328/4/2 323/4/2 333/4/2
f 332/6/2 328/6/2 333/6/2
f 331/4/2 332/4/2 334/4/2
f 330/4/2 331/4/2 334/4/2
f 332/4/2 333/4/2 334/4/2
f 319/4/2 329/4/2 334/4/2
f 329/4/2 330/4/2 334/4/2
f 333/4/2 323/4/2 335/4/2
f 334/4/2 333/4/2 335/4/2
f 336/5/2 337/5/2 341/5/2
f 341/5/2 337/5/2 342/5/2
f 342/5/2 337/5/2 343/5/2
f 343/5/2 337/5/2 344/5/2
f 338/5/2 339/5/2 347/5/2
f 347/5/2 339/5/2 348/5/2
f 348/5/2 339/5/2 349/5/2
f 349/5/2 339/5/2 350/5/2
f 340/5/2 341/5/2 352/5/2
f 341/5/2 342/5/2 352/5/2
f 342/4/2 343/4/2 353/4/2
f 352/5/2 342/5/2 353/5/2
f 344/5/2 345/5/2 354/5/2
f 353/4/2 343/4/2 354/4/2
f 343/5/2 344/5/2 354/5/2
f 354/5/2 345/5/2 355/5/2
f 346/5/2 347/5/2 356/5/2
f 347/5/2 348/5/2 356/5/2
f 348/4/2 349/4/2 357/4/2
f 356/5/2 348/5/2 357/5/2
f 350/5/2 351/5/2 358/5/2
f 357/4/2 349/4/2 358/4/2
f 349/5/2 350/5/2 358/5/2
f 358/5/2 351/5/2 359/5/2
f 352/4/2 353/4/2 362/4/2
f 353/4/2 354/4/2 362/4/2
f 354/4/2 355/4/2 362/4/2
f 362/4/2 355/4/2 363/4/2
f 356/4/2 357/4/2 366/4/2
f 358/4/2 359/4/2 366/4/2
f 357/4/2 358/4/2 366/4/2
f 366/4/2 359/4/2 367/4/2
f 362/6/2 363/6/2 370/6/2
f 352/4/2 362/4/2 370/4/2
f 363/4/2 355/4/2 371/4/2
f 370/6/2 363/6/2 371/6/2
f 364/6/2 365/6/2 372/6/2
f 372/6/2 365/6/2 373/6/2
f 356/4/2 366/4/2 374/4/2
f 366/6/2 367/6/2 374/6/2
f 367/4/2 359/4/2 375/4/2
f 374/6/2 367/6/2 375/6/2
f 360/6/2 361/6/2 376/6/2
f 376/6/2 361/6/2 377/6/2
f 340/5/2 352/5/2 378/5/2
f 352/4/2 370/4/2 378/4/2
f 370/4/2 371/4/2 378/4/2
f 378/4/2 371/4/2 379/4/2
f 371/4/2 355/4/2 380/4/2
f 379/4/2 371/4/2 380/4/2
f 355/5/2 345/5/2 381/5/2
f 380/4/2 355/4/2 381/4/2
f 346/5/2 356/5/2 382/5/2
f 356/4/2 374/4/2 382/4/2
f 374/4/2 375/4/2 382/4/2
f 382/4/2 375/4/2 383/4/2
f 375/4/2 359/4/2 384/4/2
f 383/4/2 375/4/2 384/4/2
f 359/5/2 351/5/2 385/5/2
f 384/4/2 359/4/2 385/4/2
f 368/6/2 369/6/2 386/6/2
f 386/6/2 369/6/2 387/6/2
f 378/5/2 379/5/2 388/5/2
f 340/5/2 378/5/2 388/5/2
f 388/5/2 379/5/2 389/5/2
f 379/4/2 380/4/2 390/4/2
f 389/5/2 379/5/2 390/5/2
f 380/5/2 381/5/2 391/5/2
f 390/4/2 380/4/2 391/4/2
f 381/5/2 345/5/2 392/5/2
f 391/5/2 381/5/2 392/5/2
f 392/5/2 345/5/2 393/5/2
f 382/5/2 383/5/2 394/5/2
f 346/5/2 382/5/2 394/5/2
f 394/5/2 383/5/2 395/5/2
f 383/4/2 384/4/2 396/4/2
f 395/5/2 383/5/2 396/5/2
f 384/5/2 385/5/2 397/5/2
f 396/4/2 384/4/2 397/4/2
f 385/5/2 351/5/2 398/5/2
f 397/5/2 385/5/2 398/5/2
f 398/5/2 351/5/2 399/5/2
f 390/5/2 391/5/2 400/5/2
f 389/5/2 390/5/2 400/5/2
f 391/5/2 392/5/2 400/5/2
f 400/5/2 392/5/2 401/5/2
f 397/5/2 398/5/2 402/5/2
f 396/5/2 397/5/2 402/5/2
f 395/5/2 396/5/2 402/5/2
f 402/5/2 398/5/2 403/5/2
f 406/6/3 405/6/3 404/6/3
f 407/6/3 405/6/3 406/6/3
f 412/3/3 409/3/3 408/3/3
f 412/1/3 410/1/3 409/1/3
f 413/3/3 411/3/3 410/3/3
f 413/1/3 410/1/3 412/1/3
f 414/3/3 412/3/3 408/3/3
f 414/3/3 413/3/3 412/3/3
f 415/3/3 413/3/3 414/3/3
f 416/4/3 415/4/3 414/4/3
f 417/3/3 413/3/3 415/3/3
f 417/4/3 415/4/3 416/4/3
f 418/3/3 417/3/3 416/3/3
f 418/3/3 413/3/3 417/3/3
f 419/3/3 411/3/3 413/3/3
f 419/3/3 413/3/3 418/3/3
f 420/3/3 418/3/3 416/3/3
f 421/1/3 419/1/3 418/1/3
f 421/3/3 418/3/3 420/3/3
f 422/3/3 411/3/3 419/3/3
f 422/1/3 419/1/3 421/1/3
f 423/3/3 411/3/3 422/3/3
f 426/5/3 425/5/3 424/5/3
f 427/5/3 425/5/3 426/5/3
f 428/5/3 425/5/3 427/5/3
f 429/5/3 425/5/3 428/5/3
f 434/5/3 431/5/3 430/5/3
f 434/5/3 433/5/3 432/5/3
f 434/5/3 432/5/3 431/5/3
f 435/5/3 433/5/3 434/5/3
f 440/5/3 437/5/3 436/5/3
f 441/5/3 437/5/3 440/5/3
f 442/5/3 439/5/3 438/5/3
f 443/5/3 439/5/3 442/5/3
f 448/5/3 445/5/3 444/5/3
f 449/5/3 445/5/3 448/5/3
f 450/5/3 447/5/3 446/5/3
f 451/5/3 447/5/3 450/5/3
f 454/6/3 453/6/3 452/6/3
f 455/6/3 453/6/3 454/6/3
f 458/6/3 457/6/3 456/6/3
f 459/6/3 457/6/3 458/6/3
f 462/4/3 461/4/3 460/4/3
f 463/4/3 461/4/3 462/4/3
f 464/4/3 462/4/3 460/4/3
f 464/6/3 463/6/3 462/6/3
f 465/4/3 461/4/3 463/4/3
f 465/6/3 463/6/3 464/6/3
f 468/4/3 464/4/3 460/4/3
f 468/4/3 465/4/3 464/4/3
f 469/4/3 461/4/3 465/4/3
f 469/4/3 465/4/3 468/4/3
f 470/6/3 467/6/3 466/6/3
f 471/6/3 467/6/3 470/6/3
f 474/6/3 473/6/3 472/6/3
f 475/6/3 473/6/3 474/6/3
f 478/5/3 477/5/3 476/5/3
f 479/5/3 477/5/3 478/5/3
f 480/5/3 477/5/3 479/5/3
f 481/5/3 477/5/3 480/5/3
f 486/5/3 483/5/3 482/5/3
f 486/5/3 485/5/3 484/5/3
f 486/5/3 484/5/3 483/5/3
f 487/5/3 485/5/3 486/5/3
f 492/5/3 489/5/3 488/5/3
f 493/5/3 489/5/3 492/5/3
f 494/5/3 491/5/3 490/5/3
f 495/5/3 491/5/3 494/5/3
f 500/5/3 497/5/3 496/5/3
f 501/5/3 497/5/3 500/5/3
f 502/5/3 499/5/3 498/5/3
f 503/5/3 499/5/3 502/5/3
f 507/6/3 505/6/3 504/6/3
f 507/6/3 506/6/3 505/6/3
f 508/6/3 506/6/3 507/6/3
f 511/6/3 510/6/3 509/6/3
f 512/6/3 510/6/3 511/6/3
f 513/6/3 510/6/3 512/6/3
f 519/3/3 517/3/3 516/3/3
f 519/4/3 518/4/3 517/4/3
f 520/4/3 518/4/3 519/4/3
f 521/3/3 515/3/3 514/3/3
f 521/2/3 516/2/3 515/2/3
f 522/3/3 519/3/3 516/3/3
f 522/2/3 516/2/3 521/2/3
f 523/3/3 521/3/3 514/3/3
f 523/3/3 522/3/3 521/3/3
f 524/3/3 522/3/3 523/3/3
f 525/4/3 524/4/3 523/4/3
f 526/3/3 522/3/3 524/3/3
f 526/4/3 524/4/3 525/4/3
f 527/3/3 526/3/3 525/3/3
f 527/3/3 522/3/3 526/3/3
f 528/3/3 519/3/3 522/3/3
f 528/3/3 522/3/3 527/3/3
f 529/6/3 520/6/3 519/6/3
f 529/3/3 519/3/3 528/3/3
f 530/6/3 520/6/3 529/6/3
f 531/3/3 527/3/3 525/3/3
f 532/2/3 528/2/3 527/2/3
f 532/3/3 527/3/3 531/3/3
f 533/3/3 529/3/3 528/3/3
f 533/2/3 528/2/3 532/2/3
f 534/4/3 530/4/3 529/4/3
f 534/3/3 529/3/3 533/3/3
f 535/4/3 530/4/3 534/4/3
f 536/3/4 537/3/4 540/3/4
f 537/1/4 538/1/4 540/1/4
f 538/3/4 539/3/4 541/3/4
f 540/1/4 538/1/4 541/1/4
f 536/3/4 540/3/4 542/3/4
f 540/3/4 541/3/4 542/3/4
f 542/3/4 541/3/4 543/3/4
f 536/3/4 542/3/4 544/3/4
f 542/4/4 543/4/4 544/4/4
f 543/3/4 541/3/4 545/3/4
f 544/4/4 543/4/4 545/4/4
f 544/3/4 545/3/4 546/3/4
f 545/3/4 541/3/4 546/3/4
f 541/3/4 539/3/4 547/3/4
f 546/3/4 541/3/4 547/3/4
f 544/3/4 546/3/4 548/3/4
f 536/3/4 544/3/4 548/3/4
f 546/1/4 547/1/4 549/1/4
f 548/3/4 546/3/4 549/3/4
f 547/3/4 539/3/4 550/3/4
f 549/1/4 547/1/4 550/1/4
f 550/3/4 539/3/4 551/3/4
f 552/6/4 553/6/4 555/6/4
f 553/6/4 554/6/4 555/6/4
f 555/6/4 554/6/4 556/6/4
f 557/6/4 558/6/4 559/6/4
f 559/6/4 558/6/4 560/6/4
f 560/6/4 558/6/4 561/6/4
f 562/5/4 563/5/4 566/5/4
f 566/5/4 563/5/4 567/5/4
f 564/5/4 565/5/4 568/5/4
f 568/5/4 565/5/4 569/5/4
f 570/5/4 571/5/4 574/5/4
f 574/5/4 571/5/4 575/5/4
f 572/5/4 573/5/4 576/5/4
f 576/5/4 573/5/4 577/5/4
f 578/5/4 579/5/4 580/5/4
f 580/5/4 579/5/4 581/5/4
f 581/5/4 579/5/4 582/5/4
f 582/5/4 579/5/4 583/5/4
f 584/5/4 585/5/4 588/5/4
f 586/5/4 587/5/4 588/5/4
f 585/5/4 586/5/4 588/5/4
f 588/5/4 587/5/4 589/5/4
f 590/6/4 591/6/4 592/6/4
f 592/6/4 591/6/4 593/6/4
f 594/3/4 595/3/4 596/3/4
f 596/3/4 595/3/4 597/3/4
f 598/4/4 599/4/4 601/4/4
f 599/6/4 600/6/4 602/6/4
f 601/4/4 599/4/4 602/4/4
f 602/6/4 600/6/4 603/6/4
f 602/4/4 603/4/4 604/4/4
f 604/4/4 603/4/4 605/4/4
f 606/6/4 607/6/4 608/6/4
f 608/6/4 607/6/4 609/6/4
f 610/6/4 611/6/4 612/6/4
f 612/6/4 611/6/4 613/6/4
f 614/5/4 615/5/4 618/5/4
f 618/5/4 615/5/4 619/5/4
f 616/5/4 617/5/4 620/5/4
f 620/5/4 617/5/4 621/5/4
f 622/5/4 623/5/4 626/5/4
f 626/5/4 623/5/4 627/5/4
f 624/5/4 625/5/4 628/5/4
f 628/5/4 625/5/4 629/5/4
f 630/5/4 631/5/4 632/5/4
f 632/5/4 631/5/4 633/5/4
f 633/5/4 631/5/4 634/5/4
f 634/5/4 631/5/4 635/5/4
f 636/5/4 637/5/4 640/5/4
f 638/5/4 639/5/4 640/5/4
f 637/5/4 638/5/4 640/5/4
f 640/5/4 639/5/4 641/5/4
f 644/3/4 645/3/4 647/3/4
f 645/4/4 646/4/4 647/4/4
f 647/4/4 646/4/4 648/4/4
f 642/3/4 643/3/4 649/3/4
f 643/2/4 644/2/4 649/2/4
f 644/3/4 647/3/4 650/3/4
f 649/2/4 644/2/4 650/2/4
f 642/3/4 649/3/4 651/3/4
f 649/3/4 650/3/4 651/3/4
f 651/3/4 650/3/4 652/3/4
f 651/4/4 652/4/4 653/4/4
f 652/3/4 650/3/4 654/3/4
f 653/4/4 652/4/4 654/4/4
f 653/3/4 654/3/4 655/3/4
f 654/3/4 650/3/4 655/3/4
f 650/3/4 647/3/4 656/3/4
f 655/3/4 650/3/4 656/3/4
f 647/6/4 648/6/4 657/6/4
f 656/3/4 647/3/4 657/3/4
f 648/4/4 646/4/4 658/4/4
f 657/6/4 648/6/4 658/6/4
f 653/3/4 655/3/4 659/3/4
f 655/2/4 656/2/4 660/2/4
f 659/3/4 655/3/4 660/3/4
f 656/3/4 657/3/4 661/3/4
f 660/2/4 656/2/4 661/2/4
f 657/4/4 658/4/4 662/4/4
f 661/3/4 657/3/4 662/3/4
f 658/4/4 646/4/4 663/4/4
f 662/4/4 658/4/4 663/4/4
f 664/6/4 665/6/4 666/6/4
f 666/6/4 665/6/4 667/6/4
f 672/5/5 669/5/5 668/5/5
f 673/5/5 669/5/5 672/5/5
f 674/5/5 671/5/5 670/5/5
f 675/5/5 671/5/5 674/5/5
f 678/6/5 677/6/5 676/6/5
f 679/6/5 677/6/5 678/6/5
f 684/5/5 681/5/5 680/5/5
f 685/5/5 681/5/5 684/5/5
f 686/5/5 683/5/5 682/5/5
f 687/5/5 683/5/5 686/5/5
f 692/5/5 689/5/5 688/5/5
f 693/5/5 689/5/5 692/5/5
f 694/5/5 691/5/5 690/5/5
f 695/5/5 691/5/5 694/5/5
f 700/5/5 697/5/5 696/5/5
f 701/5/5 697/5/5 700/5/5
f 702/5/5 699/5/5 698/5/5
f 703/5/5 699/5/5 702/5/5
f 708/5/5 705/5/5 704/5/5
f 709/5/5 705/5/5 708/5/5
f 710/5/5 707/5/5 706/5/5
f 711/5/5 707/5/5 710/5/5
f 716/5/5 713/5/5 712/5/5
f 717/5/5 713/5/5 716/5/5
f 718/5/5 715/5/5 714/5/5
f 719/5/5 715/5/5 718/5/5
f 722/6/5 721/6/5 720/6/5
f 723/6/5 721/6/5 722/6/5
f 724/6/5 722/6/5 720/6/5
f 725/6/5 722/6/5 724/6/5
f 726/6/5 722/6/5 725/6/5
f 727/6/5 722/6/5 726/6/5
f 728/6/5 727/6/5 726/6/5
f 729/6/5 727/6/5 728/6/5
f 730/6/5 729/6/5 728/6/5
f 731/6/5 729/6/5 730/6/5
f 732/6/5 731/6/5 730/6/5
f 733/6/5 731/6/5 732/6/5
f 735/6/5 733/6/5 732/6/5
f 736/6/5 733/6/5 735/6/5
f 738/6/5 736/6/5 735/6/5
f 738/6/5 737/6/5 736/6/5
f 738/6/5 735/6/5 734/6/5
f 739/6/5 737/6/5 738/6/5
f 740/6/5 737/6/5 739/6/5
f 741/6/5 737/6/5 740/6/5
f 742/6/5 740/6/5 739/6/5
f 743/6/5 740/6/5 742/6/5
f 744/6/5 743/6/5 742/6/5
f 745/6/5 743/6/5 744/6/5
f 746/6/5 745/6/5 744/6/5
f 747/6/5 745/6/5 746/6/5
f 748/6/5 747/6/5 746/6/5
f 749/6/5 747/6/5 748/6/5
f 750/6/5 749/6/5 748/6/5
f 753/6/5 750/6/5 748/6/5
f 753/6/5 751/6/5 750/6/5
f 754/6/5 753/6/5 752/6/5
f 755/6/5 751/6/5 753/6/5
f 755/6/5 753/6/5 754/6/5
f 758/3/5 757/3/5 756/3/5
f 759/3/5 757/3/5 758/3/5
f 762/4/5 761/4/5 760/4/5
f 763/4/5 761/4/5 762/4/5
f 767/4/5 765/4/5 764/4/5
f 767/4/5 766/4/5 765/4/5
f 768/4/5 766/4/5 767/4/5
f 769/4/5 767/4/5 764/4/5
f 770/4/5 767/4/5 769/4/5
f 771/4/5 770/4/5 769/4/5
f 772/4/5 770/4/5 771/4/5
f 773/4/5 772/4/5 771/4/5
f 774/4/5 772/4/5 773/4/5
f 775/4/5 774/4/5 773/4/5
f 776/4/5 774/4/5 775/4/5
f 777/4/5 774/4/5 776/4/5
f 778/4/5 774/4/5 777/4/5
f 779/6/6 780/6/6 781/6/6
f 781/6/6 780/6/6 782/6/6
f 783/6/6 784/6/6 787/6/6
f 787/6/6 784/6/6 788/6/6
f 785/6/6 786/6/6 791/6/6
f 787/6/6 788/6/6 792/6/6
f 792/6/6 788/6/6 793/6/6
f 789/6/6 790/6/6 794/6/6
f 785/6/6 791/6/6 795/6/6
f 792/6/6 793/6/6 796/6/6
f 796/6/6 793/6/6 797/6/6
f 794/6/6 790/6/6 798/6/6
f 785/6/6 795/6/6 799/6/6
f 799/6/6 795/6/6 800/6/6
f 796/6/6 797/6/6 801/6/6
f 801/6/6 797/6/6 802/6/6
f 798/6/6 790/6/6 803/6/6
f 803/6/6 790/6/6 804/6/6
f 801/6/6 802/6/6 805/6/6
f 805/6/6 802/6/6 806/6/6
f 806/6/6 802/6/6 807/6/6
f 807/6/6 802/6/6 808/6/6
f 809/6/6 810/6/6 811/6/6
f 811/6/6 810/6/6 812/6/6
f 812/6/6 810/6/6 813/6/6
f 813/6/6 810/6/6 814/6/6
f 814/6/6 810/6/6 815/6/6
f 815/6/6 810/6/6 816/6/6
f 809/6/6 811/6/6 817/6/6
f 817/6/6 811/6/6 818/6/6
f 821/6/6 822/6/6 823/6/6
f 819/6/6 820/6/6 826/6/6
f 824/6/6 825/6/6 827/6/6
f 825/6/6 826/6/6 827/6/6
f 821/6/6 823/6/6 827/6/6
f 823/6/6 824/6/6 827/6/6
f 826/6/6 820/6/6 828/6/6
f 827/6/6 826/6/6 828/6/6
f 829/5/6 830/5/6 833/5/6
f 833/5/6 830/5/6 834/5/6
f 831/5/6 832/5/6 835/5/6
f 835/5/6 832/5/6 836/5/6
f 837/5/6 838/5/6 841/5/6
f 841/5/6 838/5/6 842/5/6
f 839/5/6 840/5/6 843/5/6
f 843/5/6 840/5/6 844/5/6
f 845/5/6 846/5/6 849/5/6
f 849/5/6 846/5/6 850/5/6
f 847/5/6 848/5/6 851/5/6
f 851/5/6 848/5/6 852/5/6
f 853/5/6 854/5/6 857/5/6
f 857/5/6 854/5/6 858/5/6
f 855/5/6 856/5/6 859/5/6
f 859/5/6 856/5/6 860/5/6
f 861/5/6 862/5/6 865/5/6
f 865/5/6 862/5/6 866/5/6
f 863/5/6 864/5/6 867/5/6
f 867/5/6 864/5/6 868/5/6
f 869/5/6 870/5/6 873/5/6
f 873/5/6 870/5/6 874/5/6
f 871/5/6 872/5/6 875/5/6
f 875/5/6 872/5/6 876/5/6
f 877/3/6 878/3/6 879/3/6
f 879/3/6 878/3/6 880/3/6
f 881/4/6 882/4/6 883/4/6
f 883/4/6 882/4/6 884/4/6
f 885/4/6 886/4/6 887/4/6
f 887/4/6 886/4/6 888/4/6
