%YAML 1.1
%TAG !u! tag:unity3d.com,2011:
--- !u!1 &8967480607351272240
GameObject:
  m_ObjectHideFlags: 0
  m_CorrespondingSourceObject: {fileID: 0}
  m_PrefabInstance: {fileID: 0}
  m_PrefabAsset: {fileID: 0}
  serializedVersion: 6
  m_Component:
  - component: {fileID: 8967480607351272242}
  - component: {fileID: 8967480607351272241}
  m_Layer: 0
  m_Name: PoolLogs
  m_TagString: Untagged
  m_Icon: {fileID: 0}
  m_NavMeshLayer: 0
  m_StaticEditorFlags: 0
  m_IsActive: 1
--- !u!4 &8967480607351272242
Transform:
  m_ObjectHideFlags: 0
  m_CorrespondingSourceObject: {fileID: 0}
  m_PrefabInstance: {fileID: 0}
  m_PrefabAsset: {fileID: 0}
  m_GameObject: {fileID: 8967480607351272240}
  m_LocalRotation: {x: 0, y: 0, z: 0, w: 1}
  m_LocalPosition: {x: 0, y: 0, z: 0}
  m_LocalScale: {x: 1, y: 1, z: 1}
  m_Children: []
  m_Father: {fileID: 0}
  m_RootOrder: 0
  m_LocalEulerAnglesHint: {x: 0, y: 0, z: 0}
--- !u!114 &8967480607351272241
MonoBehaviour:
  m_ObjectHideFlags: 0
  m_CorrespondingSourceObject: {fileID: 0}
  m_PrefabInstance: {fileID: 0}
  m_PrefabAsset: {fileID: 0}
  m_GameObject: {fileID: 8967480607351272240}
  m_Enabled: 1
  m_EditorHideFlags: 0
  m_Script: {fileID: 11500000, guid: d4d48171e5345ef4e9c9fdf6858623ad, type: 3}
  m_Name: 
  m_EditorClassIdentifier: 
  _object:
  - {fileID: 2038638994304858197, guid: bc354456ea245684cacd6d2cb7d6aa7e, type: 3}
  - {fileID: 2038638994304858197, guid: 2ead6707377fe0f4883cb73f32069a3e, type: 3}
  holder: {fileID: 0}
  _camera: {fileID: 0}
